<?xml version="1.0" encoding="UTF-8"?>
<svg width="22px" height="22px" viewBox="0 0 22 22" version="1.1" xmlns="http://www.w3.org/2000/svg" xmlns:xlink="http://www.w3.org/1999/xlink">
    <title>icon/prod/precision</title>
    <g id="Page-1" stroke="none" stroke-width="1" fill="none" fill-rule="evenodd">
        <g id="Copperhead" transform="translate(-963.000000, -1583.000000)" fill="#FFFFFF">
            <g id="Section-2">
                <g id="Rectangle-2" transform="translate(0.000000, 946.000000)">
                    <g id="Group-17" transform="translate(958.000000, 631.000000)">
                        <g id="Icon-Size-/-32x" transform="translate(0.000000, 1.000000)">
                            <g id="Icon-/-dots">
                                <path d="M8,10.6666667 C9.47275933,10.6666667 10.6666667,9.46976256 10.6666667,8 L10.6666667,8 C10.6666667,6.52724067 9.46976256,5.33333333 8,5.33333333 L8,5.33333333 C6.52724067,5.33333333 5.33333333,6.53023744 5.33333333,8 L5.33333333,8 C5.33333333,9.47275933 6.53023744,10.6666667 8,10.6666667 L8,10.6666667 Z M16,26.6666667 C17.4727593,26.6666667 18.6666667,25.4697626 18.6666667,24 L18.6666667,24 C18.6666667,22.5272407 17.4697626,21.3333333 16,21.3333333 L16,21.3333333 C14.5272407,21.3333333 13.3333333,22.5302374 13.3333333,24 L13.3333333,24 C13.3333333,25.4727593 14.5302374,26.6666667 16,26.6666667 L16,26.6666667 Z M8,26.6666667 C9.47275933,26.6666667 10.6666667,25.4697626 10.6666667,24 L10.6666667,24 C10.6666667,22.5272407 9.46976256,21.3333333 8,21.3333333 L8,21.3333333 C6.52724067,21.3333333 5.33333333,22.5302374 5.33333333,24 L5.33333333,24 C5.33333333,25.4727593 6.53023744,26.6666667 8,26.6666667 L8,26.6666667 Z M8,18.6666667 C9.47275933,18.6666667 10.6666667,17.4697626 10.6666667,16 L10.6666667,16 C10.6666667,14.5272407 9.46976256,13.3333333 8,13.3333333 L8,13.3333333 C6.52724067,13.3333333 5.33333333,14.5302374 5.33333333,16 L5.33333333,16 C5.33333333,17.4727593 6.53023744,18.6666667 8,18.6666667 L8,18.6666667 Z M16,18.6666667 C17.4727593,18.6666667 18.6666667,17.4697626 18.6666667,16 L18.6666667,16 C18.6666667,14.5272407 17.4697626,13.3333333 16,13.3333333 L16,13.3333333 C14.5272407,13.3333333 13.3333333,14.5302374 13.3333333,16 L13.3333333,16 C13.3333333,17.4727593 14.5302374,18.6666667 16,18.6666667 L16,18.6666667 Z M16,17.3333333 C16.7363797,17.3333333 17.3333333,16.7415136 17.3333333,16 L17.3333333,16 C17.3333333,15.2636203 16.7415136,14.6666667 16,14.6666667 L16,14.6666667 C15.2636203,14.6666667 14.6666667,15.2584864 14.6666667,16 L14.6666667,16 C14.6666667,16.7363797 15.2584864,17.3333333 16,17.3333333 L16,17.3333333 Z M21.3333333,8 C21.3333333,9.47275933 22.5302374,10.6666667 24,10.6666667 L24,10.6666667 C25.4727593,10.6666667 26.6666667,9.46976256 26.6666667,8 L26.6666667,8 C26.6666667,6.52724067 25.4697626,5.33333333 24,5.33333333 L24,5.33333333 C22.5272407,5.33333333 21.3333333,6.53023744 21.3333333,8 L21.3333333,8 Z M16,10.6666667 C17.4727593,10.6666667 18.6666667,9.46976256 18.6666667,8 L18.6666667,8 C18.6666667,6.52724067 17.4697626,5.33333333 16,5.33333333 L16,5.33333333 C14.5272407,5.33333333 13.3333333,6.53023744 13.3333333,8 L13.3333333,8 C13.3333333,9.47275933 14.5302374,10.6666667 16,10.6666667 L16,10.6666667 Z M24,18.6666667 C25.4727593,18.6666667 26.6666667,17.4697626 26.6666667,16 L26.6666667,16 C26.6666667,14.5272407 25.4697626,13.3333333 24,13.3333333 L24,13.3333333 C22.5272407,13.3333333 21.3333333,14.5302374 21.3333333,16 L21.3333333,16 C21.3333333,17.4727593 22.5302374,18.6666667 24,18.6666667 L24,18.6666667 Z M24,26.6666667 C25.4727593,26.6666667 26.6666667,25.4697626 26.6666667,24 L26.6666667,24 C26.6666667,22.5272407 25.4697626,21.3333333 24,21.3333333 L24,21.3333333 C22.5272407,21.3333333 21.3333333,22.5302374 21.3333333,24 L21.3333333,24 C21.3333333,25.4727593 22.5302374,26.6666667 24,26.6666667 L24,26.6666667 Z" id="Shape"></path>
                            </g>
                        </g>
                    </g>
                </g>
            </g>
        </g>
    </g>
</svg>