<?xml version="1.0" encoding="UTF-8"?>
<svg width="52px" height="35px" viewBox="0 0 52 35" version="1.1" xmlns="http://www.w3.org/2000/svg" xmlns:xlink="http://www.w3.org/1999/xlink">
    <title>Flag/Korea</title>
    <g id="Page-1" stroke="none" stroke-width="1" fill="none" fill-rule="evenodd">
        <g id="Copperhead" transform="translate(-369.000000, -12153.000000)" fill-rule="nonzero">
            <g id="Rectangle-3" transform="translate(-349.000000, 5617.000000)">
                <g id="Group-15" transform="translate(0.000000, 2274.000000)">
                    <g id="Group-16" transform="translate(495.000000, 4036.000000)">
                        <g id="Flag/Korea" transform="translate(223.000000, 226.000000)">
                            <polygon id="Path" fill="#F0F0F0" points="0 0.000482758621 52 0.000482758621 52 34.9990345 0 34.9990345"></polygon>
                            <ellipse id="Oval" fill="#D60A2E" cx="26" cy="17.5" rx="10.0835" ry="9.7357931"></ellipse>
                            <path d="M5.8095,10.7413793 C5.48604804,10.741105 5.18913607,10.5685692 5.03745062,10.2927407 C4.88576517,10.0169122 4.90405154,9.68278854 5.085,9.42393103 L10.12,2.21972414 C10.2915813,1.96200437 10.5942253,1.81417054 10.9109155,1.83338217 C11.2276057,1.85259381 11.5087049,2.03583972 11.6455268,2.31226841 C11.7823488,2.5886971 11.7534485,2.91498182 11.57,3.16496552 L6.5355,10.3672414 C6.37325446,10.6010363 6.10097503,10.7413793 5.8095,10.7413793 L5.8095,10.7413793 Z" id="Path" fill="#000000"></path>
                            <path d="M8.1235,12.2475879 C7.80022755,12.2469557 7.50365332,12.0742818 7.35221511,11.7985222 C7.2007769,11.5227627 7.21915113,11.1888519 7.4,10.9301379 L12.435,3.72786207 C12.7099325,3.35321375 13.2444446,3.25917063 13.6385775,3.51610221 C14.0327105,3.77303379 14.1421474,4.28686115 13.885,4.67310345 L8.85,11.8753793 C8.68719984,12.1085817 8.41477445,12.2481531 8.1235,12.2475879 Z" id="Path" fill="#000000"></path>
                            <path d="M10.437,13.7552423 C10.113548,13.7549671 9.81663607,13.5824313 9.66495062,13.3066028 C9.51326517,13.0307743 9.53155154,12.6966506 9.7125,12.4377931 L14.75,5.23551724 C15.0249325,4.86086893 15.5594446,4.7668258 15.9535775,5.02375738 C16.3477105,5.28068896 16.4571474,5.79451633 16.2,6.18075862 L11.163,13.3830345 C11.0002986,13.6160948 10.7280975,13.7556473 10.437,13.7552423 Z" id="Path" fill="#000000"></path>
                            <path d="M42.8095,5.90269054 C42.5184025,5.9030956 42.2462014,5.76354308 42.0835,5.53048276 L40.4295,3.16496552 C40.2460515,2.91498182 40.2171512,2.5886971 40.3539732,2.31226841 C40.4907951,2.03583972 40.7718943,1.85259381 41.0885845,1.83338217 C41.4052747,1.81417054 41.7079187,1.96200437 41.8795,2.21972414 L43.5335,4.58524138 C43.7144485,4.84409889 43.7327348,5.17822259 43.5810494,5.45405107 C43.4293639,5.72987955 43.132452,5.90241536 42.809,5.90269054 L42.8095,5.90269054 Z" id="Path" fill="#000000"></path>
                            <path d="M46.1905,10.7413802 C45.8994025,10.7417853 45.6272014,10.6022327 45.4645,10.3691724 L43.69,7.82889655 C43.4328526,7.44265426 43.5422895,6.92882689 43.9364225,6.67189531 C44.3305554,6.41496373 44.8650675,6.50900686 45.14,6.88365517 L46.9145,9.422 C47.0965172,9.68084302 47.115474,10.0156151 46.9637688,10.2920746 C46.8120636,10.5685342 46.5145388,10.7413802 46.1905,10.7413802 Z" id="Path" fill="#000000"></path>
                            <path d="M9.7785,26.8080768 C9.48651805,26.809281 9.21319467,26.669634 9.05,26.4358621 L7.396,24.0703448 C7.21255154,23.8203611 7.18365119,23.4940764 7.32047316,23.2176477 C7.45729514,22.941219 7.73839432,22.7579731 8.05508451,22.7387615 C8.37177471,22.7195498 8.67441867,22.8673837 8.846,23.1251034 L10.5,25.4906207 C10.6809485,25.7494782 10.6992348,26.0836019 10.5475494,26.3594304 C10.3958639,26.6352589 10.098952,26.8077947 9.7755,26.8080768 L9.7785,26.8080768 Z" id="Path" fill="#000000"></path>
                            <path d="M13.16,31.6448285 C12.8689025,31.6452335 12.5967014,31.505681 12.434,31.2726207 L10.6595,28.7342759 C10.4760515,28.4842922 10.4471512,28.1580074 10.5839732,27.8815788 C10.7207951,27.6051501 11.0018943,27.4219042 11.3185845,27.4026925 C11.6352747,27.3834809 11.9379187,27.5313147 12.1095,27.7890345 L13.884,30.3273793 C14.0648986,30.586165 14.0832289,30.9201822 13.9316671,31.1959762 C13.7801053,31.4717702 13.4833622,31.6443751 13.16,31.6448285 L13.16,31.6448285 Z" id="Path" fill="#000000"></path>
                            <path d="M44.535,28.3137934 C44.211548,28.3135188 43.9146361,28.140983 43.7629506,27.8651545 C43.6112652,27.589326 43.6295515,27.2552023 43.8105,26.9963448 L45.4645,24.6308276 C45.7394325,24.2561793 46.2739446,24.1621361 46.6680775,24.4190677 C47.0622105,24.6759993 47.1716474,25.1898267 46.9145,25.576069 L45.2605,27.9415862 C45.0978974,28.1745046 44.8259205,28.3140382 44.535,28.3137934 L44.535,28.3137934 Z" id="Path" fill="#000000"></path>
                            <path d="M41.154,33.1524836 C40.830548,33.1522085 40.5336361,32.9796727 40.3819506,32.7038442 C40.2302652,32.4280157 40.2485515,32.093892 40.4295,31.8350345 L42.204,29.2966897 C42.4789325,28.9220413 43.0134446,28.8279982 43.4075775,29.0849298 C43.8017105,29.3418614 43.9111474,29.8556887 43.654,30.241931 L41.88,32.7802759 C41.7172986,33.0133362 41.4450975,33.1528887 41.154,33.1524836 L41.154,33.1524836 Z" id="Path" fill="#000000"></path>
                            <path d="M42.2215,26.8080768 C41.898048,26.8077947 41.6011361,26.6352589 41.4494506,26.3594304 C41.2977652,26.0836019 41.3160515,25.7494782 41.497,25.4906207 L43.151,23.1251034 C43.4259325,22.7504551 43.9604446,22.656412 44.3545775,22.9133436 C44.7487105,23.1702752 44.8581474,23.6841025 44.601,24.0703448 L42.95,26.4358621 C42.7868053,26.669634 42.513482,26.809281 42.2215,26.8080768 L42.2215,26.8080768 Z" id="Path" fill="#000000"></path>
                            <path d="M38.84,31.6448279 C38.516548,31.6445533 38.2196361,31.4720175 38.0679506,31.196189 C37.9162652,30.9203605 37.9345515,30.5862368 38.1155,30.3273793 L39.89,27.7890345 C40.1649325,27.4143862 40.6994446,27.320343 41.0935775,27.5772746 C41.4877105,27.8342062 41.5971474,28.3480336 41.34,28.7342759 L39.5655,31.2726207 C39.4028974,31.505539 39.1309205,31.6450727 38.84,31.6448279 L38.84,31.6448279 Z" id="Path" fill="#000000"></path>
                            <path d="M39.9075,25.2999316 C39.584048,25.2996567 39.2871361,25.1271209 39.1354506,24.8512924 C38.9837652,24.575464 39.0020515,24.2413403 39.183,23.9824828 L40.8375,21.6169655 C41.1124325,21.2423172 41.6469446,21.1482741 42.0410775,21.4052057 C42.4352105,21.6621372 42.5446474,22.1759646 42.2875,22.5622069 L40.633,24.9277241 C40.4704586,25.1607081 40.1984426,25.3002618 39.9075,25.2999316 Z" id="Path" fill="#000000"></path>
                            <path d="M36.5265,30.1366905 C36.2026891,30.1371298 35.9051002,29.964871 35.7529197,29.688904 C35.6007391,29.4129369 35.6188504,29.0783862 35.8,28.8192414 L37.5745,26.2808966 C37.8494325,25.9062482 38.3839446,25.8122051 38.7780775,26.0691367 C39.1722105,26.3260683 39.2816474,26.8398956 39.0245,27.2261379 L37.25,29.7644828 C37.0877933,29.9968344 36.8167123,30.1362929 36.5265,30.1366905 L36.5265,30.1366905 Z" id="Path" fill="#000000"></path>
                            <path d="M38.1815,8.9189664 C37.8904025,8.91937147 37.6182014,8.77981895 37.4555,8.54675862 L35.8015,6.18124138 C35.6180515,5.93125768 35.5891512,5.60497296 35.7259732,5.32854427 C35.8627951,5.05211558 36.1438943,4.86886967 36.4605845,4.84965804 C36.7772747,4.8304464 37.0799187,4.97828023 37.2515,5.236 L38.9055,7.60151724 C39.0864485,7.86037475 39.1047348,8.19449845 38.9530494,8.47032693 C38.8013639,8.74615541 38.504452,8.91869122 38.181,8.9189664 L38.1815,8.9189664 Z" id="Path" fill="#000000"></path>
                            <path d="M41.563,13.7552423 C41.2719025,13.7556473 40.9997014,13.6160948 40.837,13.3830345 L39.0625,10.8446897 C38.8053526,10.4584474 38.9147895,9.94462 39.3089225,9.68768842 C39.7030554,9.43075684 40.2375675,9.52479996 40.5125,9.89944828 L42.287,12.4377931 C42.4679485,12.6966506 42.4862348,13.0307743 42.3345494,13.3066028 C42.1828639,13.5824313 41.885952,13.7549671 41.5625,13.7552423 L41.563,13.7552423 Z" id="Path" fill="#000000"></path>
                            <path d="M43.8765,12.2475871 C43.5854025,12.2479922 43.3132014,12.1084396 43.1505,11.8753793 L38.1155,4.67262069 C37.9320515,4.42263699 37.9031512,4.09635227 38.0399732,3.81992358 C38.1767951,3.54349489 38.4578943,3.36024898 38.7745845,3.34103735 C39.0912747,3.32182571 39.3939187,3.46965954 39.5655,3.72737931 L44.6,10.9301379 C44.7809485,11.1889954 44.7992348,11.5231191 44.6475494,11.7989476 C44.4958639,12.0747761 44.198952,12.2473119 43.8755,12.2475871 L43.8765,12.2475871 Z" id="Path" fill="#000000"></path>
                            <path d="M10.846,33.1524836 C10.5549025,33.1528887 10.2827014,33.0133362 10.12,32.7802759 L5.0845,25.578 C4.82735261,25.1917577 4.93678949,24.6779303 5.33092246,24.4209988 C5.72505543,24.1640672 6.25956745,24.2581103 6.5345,24.6327586 L11.5695,31.8350345 C11.7504485,32.093892 11.7687348,32.4280157 11.6170494,32.7038442 C11.4653639,32.9796727 11.168452,33.1522085 10.845,33.1524836 L10.846,33.1524836 Z" id="Path" fill="#000000"></path>
                            <path d="M15.4735,30.1366905 C15.1824025,30.1370956 14.9102014,29.9975431 14.7475,29.7644828 L9.7125,22.5622069 C9.52905154,22.3122232 9.50015119,21.9859385 9.63697316,21.7095098 C9.77379514,21.4330811 10.0548943,21.2498352 10.3715845,21.2306236 C10.6882747,21.2114119 10.9909187,21.3592457 11.1625,21.6169655 L16.2,28.8192414 C16.3809485,29.0780989 16.3992348,29.4122226 16.2475494,29.6880511 C16.0958639,29.9638796 15.798952,30.1364154 15.4755,30.1366905 L15.4735,30.1366905 Z" id="Path" fill="#000000"></path>
                            <path d="M26,27.2357931 C28.6743511,27.2357931 31.2392059,26.2102299 33.1302577,24.3843867 C35.0213095,22.5585436 36.0835,20.0821321 36.0835,17.5 L36.0675,17.5 C36.0675,14.8158009 33.8138134,12.6398276 31.03375,12.6398276 C28.2536866,12.6398276 26,14.8158009 26,17.5 L25.9835,17.5 C25.9835,20.1840658 23.7299253,22.359931 20.95,22.359931 C18.1700747,22.359931 15.9165,20.1840658 15.9165,17.5 C15.9165,22.8769301 20.4310367,27.2357931 26,27.2357931 L26,27.2357931 Z" id="Path" fill="#0B55B1"></path>
                        </g>
                    </g>
                </g>
            </g>
        </g>
    </g>
</svg>